C:\pleiades\workspace\reactStudySpace\CalculateSalesSystem\src\main\java\jp\co\calculate\controller\HomeController.java
C:\pleiades\workspace\reactStudySpace\CalculateSalesSystem\src\main\java\jp\co\calculate\service\FileReadService.java
C:\pleiades\workspace\reactStudySpace\CalculateSalesSystem\src\main\java\jp\co\calculate\entity\User.java
C:\pleiades\workspace\reactStudySpace\CalculateSalesSystem\src\main\java\jp\co\calculate\mapper\LoginMapper.java
C:\pleiades\workspace\reactStudySpace\CalculateSalesSystem\src\main\java\jp\co\calculate\form\LoginUserForm.java
C:\pleiades\workspace\reactStudySpace\CalculateSalesSystem\src\main\java\jp\co\calculate\controller\FileUploadController.java
C:\pleiades\workspace\reactStudySpace\CalculateSalesSystem\src\main\java\jp\co\calculate\form\SalesForm.java
C:\pleiades\workspace\reactStudySpace\CalculateSalesSystem\src\main\java\jp\co\calculate\controller\RegistController.java
C:\pleiades\workspace\reactStudySpace\CalculateSalesSystem\src\main\java\jp\co\calculate\dto\UserDto.java
C:\pleiades\workspace\reactStudySpace\CalculateSalesSystem\src\main\java\jp\co\calculate\form\RegistForm.java
C:\pleiades\workspace\reactStudySpace\CalculateSalesSystem\src\main\java\jp\co\calculate\service\UserSettingService.java
C:\pleiades\workspace\reactStudySpace\CalculateSalesSystem\src\main\java\jp\co\calculate\entity\Test.java
C:\pleiades\workspace\reactStudySpace\CalculateSalesSystem\src\main\java\jp\co\calculate\mapper\UserMapper.java
C:\pleiades\workspace\reactStudySpace\CalculateSalesSystem\src\main\java\jp\co\calculate\controller\LoginController.java
C:\pleiades\workspace\reactStudySpace\CalculateSalesSystem\src\main\java\jp\co\calculate\form\UploadFileForm.java
C:\pleiades\workspace\reactStudySpace\CalculateSalesSystem\src\main\java\jp\co\calculate\controller\ReactController.java
C:\pleiades\workspace\reactStudySpace\CalculateSalesSystem\src\main\java\jp\co\calculate\mapper\TestMapper.java
C:\pleiades\workspace\reactStudySpace\CalculateSalesSystem\src\main\java\jp\co\calculate\service\LoginService.java
C:\pleiades\workspace\reactStudySpace\CalculateSalesSystem\src\main\java\jp\co\calculate\mapper\FileReadMapper.java
